NCAA Play-by-Play Stats: A solution for the NBA draft
…
nbastats <- nba %>%
mutate(name = justname(PLAYER, ',')) %>%
select(-PLAYER) #%>% #drop old name field
 # filter(name %in% drafted_names)
# returns 313, with duplicates.. appears to represent trades

nba_names <- unname(unique(nbastats$name))

nbastats

## # A tibble: 4,099 x 5
##     YEAR    GP   PTS `POINTS PER GAME` name                 
##    <int> <int> <int> <chr>             <chr>                
##  1  2018    82  2251 27                LeBron James         
##  2  2018    72  2191 30                James Harden         
##  3  2018    75  2110 28                Anthony Davis        
##  4  2018    80  2028 25                Russell Westbrook    
##  5  2018    75  2014 27                Giannis Antetokounmpo
##  6  2018    73  1962 27                Damian Lillard       
##  7  2018    82  1857 23                Bradley Beal         
##  8  2018    80  1840 23                DeMar DeRozan        
##  9  2018    68  1792 26                Kevin Durant         
## 10  2018    79  1782 23                Lou Williams         
## # ... with 4,089 more rows

#clean player names
nbastats$name <- str_replace_all(nbastats$name, "[,..'-]", "") 

##Have to remove the characters after the comma with stringr, then run the following code chunk on that new data

points <- nbastats %>% 
  group_by(name) %>% 
  summarise(avg_points = mean(as.numeric(`POINTS PER GAME`), na.rm = TRUE)) %>% 
  filter(!is.na(avg_points)) %>% 
  arrange(desc(avg_points))
points

## # A tibble: 1,017 x 2
##    name              avg_points
##    <chr>                  <dbl>
##  1 Kevin Durant            27.4
##  2 LeBron James            26.3
##  3 James Harden            26.1
##  4 Russell Westbrook       25.3
##  5 Stephen Curry           23.9
##  6 DeMarcus Cousins        23.7
##  7 Damian Lillard          23.3
##  8 Carmelo Anthony         23.3
##  9 Anthony Davis           23.2
## 10 Kyrie Irving            21.9
## # ... with 1,007 more rows

player_eventgroup

## # A tibble: 10,858 x 36
## # Groups:   player_id, player_full_name [10,858]
##    player_id player_full_name assist attemptblocked block clearpathfoul
##    <chr>     <chr>             <int>          <int> <int>         <int>
##  1 00158668~ Raekwon Harney        5              1    NA            NA
##  2 0016b0b8~ MarQywell Jacks~      1             NA    NA            NA
##  3 001c7ed4~ Colbey Ross          12              3    NA            NA
##  4 00291acf~ Omotayo Aiyegbu~      1             NA    NA            NA
##  5 0029439f~ Taurean Thompson      2              1     3            NA
##  6 00346699~ Rojhae Colbert        1             NA    NA            NA
##  7 0036c49a~ Mark Hall             2             NA    NA            NA
##  8 00435e98~ Zack Flener           1             NA    NA            NA
##  9 00452894~ Paulo Cruz           NA              2    NA            NA
## 10 0045cb5b~ Tyre Moore           NA             NA    NA            NA
## # ... with 10,848 more rows, and 30 more variables: deadball <int>,
## #   delay <int>, ejection <int>, endperiod <int>, flagrantone <int>,
## #   flagranttwo <int>, freethrow <int>, freethrowmade <int>,
## #   freethrowmiss <int>, jumpball <int>, kickball <int>,
## #   laneviolation <int>, lineupchange <int>, minortechnicalfoul <int>,
## #   offensivefoul <int>, openinbound <int>, opentip <int>,
## #   personalfoul <int>, possession <int>, rebound <int>, review <int>,
## #   shootingfoul <int>, substitution <int>, technicalfoul <int>,
## #   threepointmade <int>, threepointmiss <int>, turnover <int>,
## #   tvtimeout <int>, twopointmade <int>, twopointmiss <int>

player_eventgroup$player_full_name <- str_replace_all(player_eventgroup$player_full_name, "[,..'-]", "") 

player_eventgroup

## # A tibble: 10,858 x 36
## # Groups:   player_id, player_full_name [10,858]
##    player_id player_full_name assist attemptblocked block clearpathfoul
##    <chr>     <chr>             <int>          <int> <int>         <int>
##  1 00158668~ Raekwon Harney        5              1    NA            NA
##  2 0016b0b8~ MarQywell Jacks~      1             NA    NA            NA
##  3 001c7ed4~ Colbey Ross          12              3    NA            NA
##  4 00291acf~ Omotayo Aiyegbu~      1             NA    NA            NA
##  5 0029439f~ Taurean Thompson      2              1     3            NA
##  6 00346699~ Rojhae Colbert        1             NA    NA            NA
##  7 0036c49a~ Mark Hall             2             NA    NA            NA
##  8 00435e98~ Zack Flener           1             NA    NA            NA
##  9 00452894~ Paulo Cruz           NA              2    NA            NA
## 10 0045cb5b~ Tyre Moore           NA             NA    NA            NA
## # ... with 10,848 more rows, and 30 more variables: deadball <int>,
## #   delay <int>, ejection <int>, endperiod <int>, flagrantone <int>,
## #   flagranttwo <int>, freethrow <int>, freethrowmade <int>,
## #   freethrowmiss <int>, jumpball <int>, kickball <int>,
## #   laneviolation <int>, lineupchange <int>, minortechnicalfoul <int>,
## #   offensivefoul <int>, openinbound <int>, opentip <int>,
## #   personalfoul <int>, possession <int>, rebound <int>, review <int>,
## #   shootingfoul <int>, substitution <int>, technicalfoul <int>,
## #   threepointmade <int>, threepointmiss <int>, turnover <int>,
## #   tvtimeout <int>, twopointmade <int>, twopointmiss <int>

Lets join the data frames using the innerjoin function!

inner_join(player_eventgroup, points, copy= TRUE, by = c('player_full_name' = 'name'))

## # A tibble: 298 x 37
## # Groups:   player_id, player_full_name [?]
##    player_id player_full_name assist attemptblocked block clearpathfoul
##    <chr>     <chr>             <int>          <int> <int>         <int>
##  1 0385b378~ Shaquille Harri~     28             12     4            NA
##  2 04b604c3~ Daniel Hamilton      37              7     2            NA
##  3 05e02c76~ Larry Owens          NA             NA    NA            NA
##  4 05f6462d~ Zach LaVine           9              2    NA            NA
##  5 07e3ab2a~ Damian Jones          7              9    21            NA
##  6 0802fe3c~ Josh Davis            3             NA    NA            NA
##  7 0928dba8~ John Collins          4              5    10            NA
##  8 0999eec2~ Jabari Bird          17              6     7            NA
##  9 0a0d9e7f~ Sean Kilpatrick      14              5     1            NA
## 10 0af749be~ TJ Leaf               7             NA     6            NA
## # ... with 288 more rows, and 31 more variables: deadball <int>,
## #   delay <int>, ejection <int>, endperiod <int>, flagrantone <int>,
## #   flagranttwo <int>, freethrow <int>, freethrowmade <int>,
## #   freethrowmiss <int>, jumpball <int>, kickball <int>,
## #   laneviolation <int>, lineupchange <int>, minortechnicalfoul <int>,
## #   offensivefoul <int>, openinbound <int>, opentip <int>,
## #   personalfoul <int>, possession <int>, rebound <int>, review <int>,
## #   shootingfoul <int>, substitution <int>, technicalfoul <int>,
## #   threepointmade <int>, threepointmiss <int>, turnover <int>,
## #   tvtimeout <int>, twopointmade <int>, twopointmiss <int>,
## #   avg_points <dbl>

NCAA_NBA_Joined <- inner_join(player_eventgroup, points, by = c('player_full_name' = 'name')) %>% ungroup()

Lets take a look at our new joint data frame!

NCAA_NBA_Joined %>% arrange(avg_points) %>% select(player_full_name, avg_points, twopointmade, threepointmade, freethrowmade)

## # A tibble: 298 x 5
##    player_full_name avg_points twopointmade threepointmade freethrowmade
##    <chr>                 <dbl>        <int>          <int>         <int>
##  1 Charles Cooke             0           23              9            61
##  2 Michael Gbinije           0           46             20            62
##  3 Andre Dawkins             1            2              8             2
##  4 Cliff Alexander           1            7             NA             8
##  5 Matt Costello             1           25             NA            36
##  6 Jacob Wiley               1           NA             NA            NA
##  7 Keith Appling             1           15              4            39
##  8 Alex Kirk                 1           11              1             9
##  9 London Perrantes          1           29             30            63
## 10 Kyle Wiltjer              1           25              6            56
## # ... with 288 more rows
…
NCAA_NBA_Joined %>%
  filter(avg_points>10) %>% 
  arrange(desc(twopointmade)) %>% 
  select(player_full_name, avg_points, twopointmade)

## # A tibble: 43 x 3
##    player_full_name avg_points twopointmade
##    <chr>                 <dbl>        <int>
##  1 Dillon Brooks          11             51
##  2 Tony Parker            14.1           50
##  3 John Collins           11             41
##  4 TJ Warren              12.8           40
##  5 Kyle Kuzma             16             37
##  6 Malcolm Brogdon        11.5           33
##  7 DeAaron Fox            12             31
##  8 Jordan Clarkson        14.2           30
##  9 Taurean Prince         14             30
## 10 Buddy Hield            12             30
## # ... with 33 more rows
…
